<?xml version="1.0" encoding="utf-8"?>
<!-- Generator: Adobe Illustrator 24.2.3, SVG Export Plug-In . SVG Version: 6.00 Build 0)  -->
<svg version="1.1" id="Layer_1" xmlns="http://www.w3.org/2000/svg" xmlns:xlink="http://www.w3.org/1999/xlink" x="0px" y="0px"
	 viewBox="0 0 32 32" style="enable-background:new 0 0 32 32;" xml:space="preserve">
<style type="text/css">
	.st0{fill:#FFFFFF;}
</style>
<path class="st0" d="M15.6,0.2C15.7,0.1,15.9,0,16.2,0c0.2,0,0.4,0.1,0.6,0.2l14.9,15.2c0.1,0.1,0.3,0.4,0.3,0.6
	c0,0.3-0.1,0.4-0.3,0.6L16.8,31.8c-0.1,0.1-0.4,0.2-0.6,0.2c-0.3,0-0.5-0.1-0.6-0.2l-1.4-1.4c-0.1-0.1-0.2-0.3-0.2-0.6
	c0-0.2,0.1-0.4,0.2-0.7l11.1-11.2H0.9c-0.3,0-0.5-0.1-0.6-0.2C0.1,17.5,0,17.3,0,17v-2c0-0.2,0.1-0.4,0.2-0.6
	c0.1-0.1,0.4-0.3,0.6-0.3h24.4L14.1,2.9c-0.1-0.1-0.2-0.4-0.2-0.7c0-0.2,0.1-0.4,0.2-0.6L15.6,0.2z"/>
</svg>
