<svg width="12" height="13" viewBox="0 0 12 13" fill="none" xmlns="http://www.w3.org/2000/svg">
<path d="M7.07227 6.625L11.3887 10.9414C11.4551 11.041 11.4883 11.1406 11.4883 11.2402C11.4883 11.373 11.4551 11.4395 11.3887 11.5059L10.625 12.2695C10.5586 12.3359 10.459 12.3691 10.3594 12.3691C10.2266 12.3691 10.127 12.3359 10.0605 12.2695L5.74414 7.95312L1.42773 12.2695C1.32812 12.3359 1.22852 12.3691 1.12891 12.3691C0.996094 12.3691 0.929688 12.3359 0.863281 12.2695L0.0996094 11.5059C0.0332031 11.4395 0 11.373 0 11.2402C0 11.1406 0.0332031 11.041 0.0996094 10.9414L4.41602 6.625L0.0996094 2.30859C0.0332031 2.24219 0 2.14258 0 2.00977C0 1.91016 0.0332031 1.81055 0.0996094 1.74414L0.863281 0.980469C0.929688 0.914062 0.996094 0.880859 1.12891 0.880859C1.22852 0.880859 1.32812 0.914062 1.42773 0.980469L5.74414 5.29688L10.0605 0.980469C10.127 0.914062 10.2266 0.880859 10.3594 0.880859C10.459 0.880859 10.5586 0.914062 10.625 0.980469L11.3887 1.74414C11.4551 1.81055 11.4883 1.91016 11.4883 2.00977C11.4883 2.14258 11.4551 2.24219 11.3887 2.30859L7.07227 6.625Z" fill="white"/>
</svg>
