<svg width="32" height="32" viewBox="0 0 32 32" fill="none" xmlns="http://www.w3.org/2000/svg">
<path d="M16.4286 0.217195C16.2857 0.0723982 16.0714 0 15.7857 0C15.5714 0 15.3571 0.0723982 15.2143 0.217195L0.285713 15.4208C0.142857 15.5656 0 15.7828 0 16C0 16.2896 0.142857 16.4344 0.285713 16.5792L15.2143 31.7828C15.3571 31.9276 15.5714 32 15.7857 32C16.0714 32 16.2857 31.9276 16.4286 31.7828L17.8571 30.3348C18 30.19 18.0714 30.0452 18.0714 29.7557C18.0714 29.5385 18 29.3213 17.8571 29.1041L6.78571 17.8824H31.1429C31.4286 17.8824 31.6429 17.81 31.7857 17.6652C31.9286 17.5204 32 17.3032 32 17.0136V14.9864C32 14.7692 31.9286 14.552 31.7857 14.4072C31.6429 14.2624 31.4286 14.1176 31.1429 14.1176H6.78571L17.8571 2.89593C18 2.75113 18.0714 2.53394 18.0714 2.24434C18.0714 2.02715 18 1.80995 17.8571 1.66516L16.4286 0.217195Z" fill="#DE252A"/>
</svg>
